BlueSpecPractice/Counter/dumpfile2.vcd
$date
	Sat May  5 03:00:58 2018
$end
$version
	Bluespec VCD dumper 2.1
$end
$timescale
	1 us
$end
$scope module main $end
$scope module top $end
$var reg 1 ! CLK $end
$var reg 1 ! CLK $end
$var reg 1 " RST_N $end
$var reg 10 # x_readVal__h59 $end
$var reg 2 % state $end
$scope module counter $end
$var reg 1 ! CLK $end
$var reg 1 & RST_N $end
$var reg 10 ' _read__h46 $end
$var reg 10 ) counter $end
$upscope $end
$upscope $end
$upscope $end
$enddefinitions $end
1!
0"
b1010101010 #
b0 %
0&
b1010101010 '
b0 )
#5
0!
1"
1&
#10
b10100 #
b10100 '
1!
b1 %
b10100 )
#15
0!
#20
b11110 #
b11110 '
1!
b10 %
b11110 )
#25
0!
#30
1!
b11 %
#35
0!
#40
b101000 '
1!
b101000 )
#45
0!
#50
b110010 '
1!
b110010 )
#55
0!
#60
b111100 '
1!
b111100 )
#65
0!
#70
b1000110 '
1!
b1000110 )
#75
0!
#80
b1010000 '
1!
b1010000 )
#85
0!
#90
b1011010 '
1!
b1011010 )
#95
0!
#100
b1100100 '
1!
b1100100 )
#105
0!
#110
b1101110 '
1!
b1101110 )
#115
0!
#120
b1111000 '
1!
b1111000 )
#125
0!
#130
b10000010 '
1!
b10000010 )
#135
0!
#140
b10001100 '
1!
b10001100 )
#145
0!
#150
b10010110 '
1!
b10010110 )
#155
0!
#160
b10100000 '
1!
b10100000 )
#165
0!
#170
b10101010 '
1!
b10101010 )
#175
0!
#180
b10110100 '
1!
b10110100 )
#185
0!
#190
b10111110 '
1!
b10111110 )
#195
0!
#200
b11001000 '
1!
b11001000 )
#205
0!
#210
b11010010 '
1!
b11010010 )
#215
0!
#220
b11011100 '
1!
b11011100 )
#225
0!
#230
b11100110 '
1!
b11100110 )
#235
0!
#240
b11110000 '
1!
b11110000 )
#245
0!
#250
b11111010 '
1!
b11111010 )
#255
0!
#260
b100000100 '
1!
b100000100 )
#265
0!
#270
b100001110 '
1!
b100001110 )
#275
0!
#280
b100011000 '
1!
b100011000 )
#285
0!
#290
b100100010 '
1!
b100100010 )
#295
0!
#300
b100101100 '
1!
b100101100 )
#305
0!
#310
b100110110 '
1!
b100110110 )
#315
0!
#320
b101000000 '
1!
b101000000 )
#325
0!
#330
b101001010 '
1!
b101001010 )
#335
0!
#340
b101010100 '
1!
b101010100 )
#345
0!
#350
b101011110 '
1!
b101011110 )
#355
0!
#360
b101101000 '
1!
b101101000 )
#365
0!
#370
b101110010 '
1!
b101110010 )
#375
0!
#380
b101111100 '
1!
b101111100 )
#385
0!
#390
b110000110 '
1!
b110000110 )
#395
0!
#400
b110010000 '
1!
b110010000 )
#405
0!
#410
b110011010 '
1!
b110011010 )
#415
0!
#420
b110100100 '
1!
b110100100 )
#425
0!
#430
b110101110 '
1!
b110101110 )
#435
0!
#440
b110111000 '
1!
b110111000 )
#445
0!
#450
b111000010 '
1!
b111000010 )
#455
0!
#460
b111001100 '
1!
b111001100 )
#465
0!
#470
b111010110 '
1!
b111010110 )
#475
0!
#480
b111100000 '
1!
b111100000 )
#485
0!
#490
b111101010 '
1!
b111101010 )
#495
0!
#500
b111110100 '
1!
b111110100 )
#505
0!
#510
b111111110 '
1!
b111111110 )
#515
0!
#520
b1000001000 '
1!
b1000001000 )
#525
0!
#530
b1000010010 '
1!
b1000010010 )
#535
0!
#540
b1000011100 '
1!
b1000011100 )
#545
0!
#550
b1000100110 '
1!
b1000100110 )
#555
0!
#560
b1000110000 '
1!
b1000110000 )
#565
0!
#570
b1000111010 '
1!
b1000111010 )
#575
0!
#580
b1001000100 '
1!
b1001000100 )
#585
0!
#590
b1001001110 '
1!
b1001001110 )
#595
0!
#600
b1001011000 '
1!
b1001011000 )
#605
0!
#610
b1001100010 '
1!
b1001100010 )
#615
0!
#620
b1001101100 '
1!
b1001101100 )
#625
0!
#630
b1001110110 '
1!
b1001110110 )
#635
0!
#640
b1010000000 '
1!
b1010000000 )
#645
0!
#650
b1010001010 '
1!
b1010001010 )
#655
0!
#660
b1010010100 '
1!
b1010010100 )
#665
0!
#670
b1010011110 '
1!
b1010011110 )
#675
0!
#680
b1010101000 '
1!
b1010101000 )
#685
0!
#690
b1010110010 '
1!
b1010110010 )
#695
0!
#700
b1010111100 '
1!
b1010111100 )
#705
0!
#710
b1011000110 '
1!
b1011000110 )
#715
0!
#720
b1011010000 '
1!
b1011010000 )
#725
0!
#730
b1011011010 '
1!
b1011011010 )
#735
0!
#740
b1011100100 '
1!
b1011100100 )
#745
0!
#750
b1011101110 '
1!
b1011101110 )
#755
0!
#760
b1011111000 '
1!
b1011111000 )
#765
0!
#770
b1100000010 '
1!
b1100000010 )
#775
0!
#780
b1100001100 '
1!
b1100001100 )
#785
0!
#790
b1100010110 '
1!
b1100010110 )
#795
0!
#800
b1100100000 '
1!
b1100100000 )
#805
0!
#810
b1100101010 '
1!
b1100101010 )
#815
0!
#820
b1100110100 '
1!
b1100110100 )
#825
0!
#830
b1100111110 '
1!
b1100111110 )
#835
0!
#840
b1101001000 '
1!
b1101001000 )
#845
0!
#850
b1101010010 '
1!
b1101010010 )
#855
0!
#860
b1101011100 '
1!
b1101011100 )
#865
0!
#870
b1101100110 '
1!
b1101100110 )
#875
0!
#880
b1101110000 '
1!
b1101110000 )
#885
0!
#890
b1101111010 '
1!
b1101111010 )
#895
0!
#900
b1110000100 '
1!
b1110000100 )
#905
0!
#910
b1110001110 '
1!
b1110001110 )
#915
0!
#920
b1110011000 '
1!
b1110011000 )
#925
0!
#930
b1110100010 '
1!
b1110100010 )
#935
0!
#940
b1110101100 '
1!
b1110101100 )
#945
0!
#950
b1110110110 '
1!
b1110110110 )
#955
0!
#960
b1111000000 '
1!
b1111000000 )
#965
0!
#970
b1111001010 '
1!
b1111001010 )
#975
0!
#980
b1111010100 '
1!
b1111010100 )
#985
0!
#990
b1111011110 '
1!
b1111011110 )
#995
0!
#1000
b1111101000 '
1!
b1111101000 )
#1005
0!
#1010
b1111110010 '
1!
b1111110010 )
#1015
0!
#1020
b1111111100 '
1!
b1111111100 )
#1025
0!
#1030
b110 '
1!
b110 )
#1035
0!
#1040
b10000 '
1!
b10000 )
#1045
0!
#1050
b11010 '
1!
b11010 )
#1055
0!
#1060
b100100 '
1!
b100100 )
#1065
0!
#1070
b101110 '
1!
b101110 )
#1075
0!
#1080
b111000 '
1!
b111000 )
#1085
0!
#1090
b1000010 '
1!
b1000010 )
#1095
0!
#1100
b1001100 '
1!
b1001100 )
#1105
0!
#1110
b1010110 '
1!
b1010110 )
#1115
0!
#1120
b1100000 '
1!
b1100000 )
#1125
0!
#1130
b1101010 '
1!
b1101010 )
#1135
0!
#1140
b1110100 '
1!
b1110100 )
#1145
0!
#1150
b1111110 '
1!
b1111110 )
#1155
0!
#1160
b10001000 '
1!
b10001000 )
#1165
0!
#1170
b10010010 '
1!
b10010010 )
#1175
0!
#1180
b10011100 '
1!
b10011100 )
#1185
0!
#1190
b10100110 '
1!
b10100110 )
#1195
0!
#1200
b10110000 '
1!
b10110000 )
#1205
0!
#1210
b10111010 '
1!
b10111010 )
#1215
0!
#1220
b11000100 '
1!
b11000100 )
#1225
0!
#1230
b11001110 '
1!
b11001110 )
#1235
0!
#1240
b11011000 '
1!
b11011000 )
#1245
0!
#1250
b11100010 '
1!
b11100010 )
#1255
0!
#1260
b11101100 '
1!
b11101100 )
#1265
0!
#1270
b11110110 '
1!
b11110110 )
#1275
0!
#1280
b100000000 '
1!
b100000000 )
#1285
0!
#1290
b100001010 '
1!
b100001010 )
#1295
0!
#1300
b100010100 '
1!
b100010100 )
#1305
0!
#1310
b100011110 '
1!
b100011110 )
#1315
0!
#1320
b100101000 '
1!
b100101000 )
#1325
0!
#1330
b100110010 '
1!
b100110010 )
#1335
0!
#1340
b100111100 '
1!
b100111100 )
#1345
0!
#1350
b101000110 '
1!
b101000110 )
#1355
0!
#1360
b101010000 '
1!
b101010000 )
#1365
0!
#1370
b101011010 '
1!
b101011010 )
#1375
0!
#1380
b101100100 '
1!
b101100100 )
#1385
0!
#1390
b101101110 '
1!
b101101110 )
#1395
0!
#1400
b101111000 '
1!
b101111000 )
#1405
0!
#1410
b110000010 '
1!
b110000010 )
#1415
0!
#1420
b110001100 '
1!
b110001100 )
#1425
0!
#1430
b110010110 '
1!
b110010110 )
#1435
0!
#1440
b110100000 '
1!
b110100000 )
#1445
0!
#1450
b110101010 '
1!
b110101010 )
#1455
0!
#1460
b110110100 '
1!
b110110100 )
#1465
0!
#1470
b110111110 '
1!
b110111110 )
#1475
0!
#1480
b111001000 '
1!
b111001000 )
#1485
0!
#1490
b111010010 '
1!
b111010010 )
#1495
0!
#1500
b111011100 '
1!
b111011100 )
#1505
0!
#1510
b111100110 '
1!
b111100110 )
#1515
0!
#1520
b111110000 '
1!
b111110000 )
#1525
0!
#1530
b111111010 '
1!
b111111010 )
#1535
0!
#1540
b1000000100 '
1!
b1000000100 )
#1545
0!
#1550
b1000001110 '
1!
b1000001110 )
#1555
0!
#1560
b1000011000 '
1!
b1000011000 )
#1565
0!
#1570
b1000100010 '
1!
b1000100010 )
#1575
0!
#1580
b1000101100 '
1!
b1000101100 )
#1585
0!
#1590
b1000110110 '
1!
b1000110110 )
#1595
0!
#1600
b1001000000 '
1!
b1001000000 )
#1605
0!
#1610
b1001001010 '
1!
b1001001010 )
#1615
0!
#1620
b1001010100 '
1!
b1001010100 )
#1625
0!
#1630
b1001011110 '
1!
b1001011110 )
#1635
0!
#1640
b1001101000 '
1!
b1001101000 )
#1645
0!
#1650
b1001110010 '
1!
b1001110010 )
#1655
0!
#1660
b1001111100 '
1!
b1001111100 )
#1665
0!
#1670
b1010000110 '
1!
b1010000110 )
#1675
0!
#1680
b1010010000 '
1!
b1010010000 )
#1685
0!
#1690
b1010011010 '
1!
b1010011010 )
#1695
0!
#1700
b1010100100 '
1!
b1010100100 )
#1705
0!
#1710
b1010101110 '
1!
b1010101110 )
#1715
0!
#1720
b1010111000 '
1!
b1010111000 )
#1725
0!
#1730
b1011000010 '
1!
b1011000010 )
#1735
0!
#1740
b1011001100 '
1!
b1011001100 )
#1745
0!
#1750
b1011010110 '
1!
b1011010110 )
#1755
0!
#1760
b1011100000 '
1!
b1011100000 )
#1765
0!
#1770
b1011101010 '
1!
b1011101010 )
#1775
0!
#1780
b1011110100 '
1!
b1011110100 )
#1785
0!
#1790
b1011111110 '
1!
b1011111110 )
#1795
0!
#1800
b1100001000 '
1!
b1100001000 )
#1805
0!
#1810
b1100010010 '
1!
b1100010010 )
#1815
0!
#1820
b1100011100 '
1!
b1100011100 )
#1825
0!
#1830
b1100100110 '
1!
b1100100110 )
#1835
0!
#1840
b1100110000 '
1!
b1100110000 )
#1845
0!
#1850
b1100111010 '
1!
b1100111010 )
#1855
0!
#1860
b1101000100 '
1!
b1101000100 )
#1865
0!
#1870
b1101001110 '
1!
b1101001110 )
#1875
0!
#1880
b1101011000 '
1!
b1101011000 )
#1885
0!
#1890
b1101100010 '
1!
b1101100010 )
#1895
0!
#1900
b1101101100 '
1!
b1101101100 )
#1905
0!
#1910
b1101110110 '
1!
b1101110110 )
#1915
0!
#1920
b1110000000 '
1!
b1110000000 )
#1925
0!
#1930
b1110001010 '
1!
b1110001010 )
#1935
0!
#1940
b1110010100 '
1!
b1110010100 )
#1945
0!
#1950
b1110011110 '
1!
b1110011110 )
#1955
0!
#1960
b1110101000 '
1!
b1110101000 )
#1965
0!
#1970
b1110110010 '
1!
b1110110010 )
#1975
0!
#1980
b1110111100 '
1!
b1110111100 )
#1985
0!
#1990
b1111000110 '
1!
b1111000110 )
#1995
0!
#2000
b1111010000 '
1!
b1111010000 )
#2005
0!
#2010
b1111011010 '
1!
b1111011010 )
#2015
0!
#2020
b1111100100 '
1!
b1111100100 )
#2025
0!
#2030
b1111101110 '
1!
b1111101110 )
#2035
0!
#2040
b1111111000 '
1!
b1111111000 )
#2045
0!
#2050
b10 '
1!
b10 )
#2055
0!
#2060
b1100 '
1!
b1100 )
#2065
0!
#2070
b10110 '
1!
b10110 )
#2075
0!
#2080
b100000 '
1!
b100000 )
#2085
0!
#2090
b101010 '
1!
b101010 )
#2095
0!
#2100
b110100 '
1!
b110100 )
#2105
0!
#2110
b111110 '
1!
b111110 )
#2115
0!
#2120
b1001000 '
1!
b1001000 )
#2125
0!
#2130
b1010010 '
1!
b1010010 )
#2135
0!
#2140
b1011100 '
1!
b1011100 )
#2145
0!
#2150
b1100110 '
1!
b1100110 )
#2155
0!
#2160
b1110000 '
1!
b1110000 )
#2165
0!
#2170
b1111010 '
1!
b1111010 )
#2175
0!
#2180
b10000100 '
1!
b10000100 )
#2185
0!
#2190
b10001110 '
1!
b10001110 )
#2195
0!
#2200
b10011000 '
1!
b10011000 )
#2205
0!
#2210
b10100010 '
1!
b10100010 )
#2215
0!
#2220
b10101100 '
1!
b10101100 )
#2225
0!
#2230
b10110110 '
1!
b10110110 )
#2235
0!
#2240
b11000000 '
1!
b11000000 )
#2245
0!
#2250
b11001010 '
1!
b11001010 )
#2255
0!
#2260
b11010100 '
1!
b11010100 )
#2265
0!
#2270
b11011110 '
1!
b11011110 )
#2275
0!
#2280
b11101000 '
1!
b11101000 )
#2285
0!
#2290
b11110010 '
1!
b11110010 )
#2295
0!
#2300
b11111100 '
1!
b11111100 )
#2305
0!
#2310
b100000110 '
1!
b100000110 )
#2315
0!
#2320
b100010000 '
1!
b100010000 )
#2325
0!
#2330
b100011010 '
1!
b100011010 )
#2335
0!
#2340
b100100100 '
1!
b100100100 )
#2345
0!
#2350
b100101110 '
1!
b100101110 )
#2355
0!
#2360
b100111000 '
1!
b100111000 )
#2365
0!
#2370
b101000010 '
1!
b101000010 )
#2375
0!
#2380
b101001100 '
1!
b101001100 )
#2385
0!
#2390
b101010110 '
1!
b101010110 )
#2395
0!
#2400
b101100000 '
1!
b101100000 )
#2405
0!
#2410
b101101010 '
1!
b101101010 )
#2415
0!
#2420
b101110100 '
1!
b101110100 )
#2425
0!
#2430
b101111110 '
1!
b101111110 )
#2435
0!
#2440
b110001000 '
1!
b110001000 )
#2445
0!
#2450
b110010010 '
1!
b110010010 )
#2455
0!
#2460
b110011100 '
1!
b110011100 )
#2465
0!
#2470
b110100110 '
1!
b110100110 )
#2475
0!
#2480
b110110000 '
1!
b110110000 )
#2485
0!
#2490
b110111010 '
1!
b110111010 )
#2495
0!
#2500
b111000100 '
1!
b111000100 )
#2505
0!
#2510
b111001110 '
1!
b111001110 )
#2515
0!
#2520
b111011000 '
1!
b111011000 )
#2525
0!
#2530
b111100010 '
1!
b111100010 )
#2535
0!
#2540
b111101100 '
1!
b111101100 )
#2545
0!
#2550
b111110110 '
1!
b111110110 )
#2555
0!
#2560
b1000000000 '
1!
b1000000000 )
#2565
0!
#2570
b1000001010 '
1!
b1000001010 )
#2575
0!
#2580
b1000010100 '
1!
b1000010100 )
#2585
0!
#2590
b1000011110 '
1!
b1000011110 )
#2595
0!
#2600
b1000101000 '
1!
b1000101000 )
#2605
0!
#2610
b1000110010 '
1!
b1000110010 )
#2615
0!
#2620
b1000111100 '
1!
b1000111100 )
#2625
0!
#2630
b1001000110 '
1!
b1001000110 )
#2635
0!
#2640
b1001010000 '
1!
b1001010000 )
#2645
0!
#2650
b1001011010 '
1!
b1001011010 )
#2655
0!
#2660
b1001100100 '
1!
b1001100100 )
#2665
0!
#2670
b1001101110 '
1!
b1001101110 )
#2675
0!
#2680
b1001111000 '
1!
b1001111000 )
#2685
0!
#2690
b1010000010 '
1!
b1010000010 )
#2695
0!
#2700
b1010001100 '
1!
b1010001100 )
#2705
0!
#2710
b1010010110 '
1!
b1010010110 )
#2715
0!
#2720
b1010100000 '
1!
b1010100000 )
#2725
0!
#2730
b1010101010 '
1!
b1010101010 )
#2735
0!
#2740
b1010110100 '
1!
b1010110100 )
#2745
0!
#2750
b1010111110 '
1!
b1010111110 )
#2755
0!
#2760
b1011001000 '
1!
b1011001000 )
#2765
0!
#2770
b1011010010 '
1!
b1011010010 )
#2775
0!
#2780
b1011011100 '
1!
b1011011100 )
#2785
0!
#2790
b1011100110 '
1!
b1011100110 )
#2795
0!
#2800
b1011110000 '
1!
b1011110000 )
#2805
0!
#2810
b1011111010 '
1!
b1011111010 )
#2815
0!
#2820
b1100000100 '
1!
b1100000100 )
#2825
0!
#2830
b1100001110 '
1!
b1100001110 )
#2835
0!
#2840
b1100011000 '
1!
b1100011000 )
#2845
0!
#2850
b1100100010 '
1!
b1100100010 )
#2855
0!
#2860
b1100101100 '
1!
b1100101100 )
#2865
0!
#2870
b1100110110 '
1!
b1100110110 )
#2875
0!
#2880
b1101000000 '
1!
b1101000000 )
#2885
0!
#2890
b1101001010 '
1!
b1101001010 )
#2895
0!
#2900
b1101010100 '
1!
b1101010100 )
#2905
0!
#2910
b1101011110 '
1!
b1101011110 )
#2915
0!
#2920
b1101101000 '
1!
b1101101000 )
#2925
0!
#2930
b1101110010 '
1!
b1101110010 )
#2935
0!
#2940
b1101111100 '
1!
b1101111100 )
#2945
0!
#2950
b1110000110 '
1!
b1110000110 )
#2955
0!
#2960
b1110010000 '
1!
b1110010000 )
#2965
0!
#2970
b1110011010 '
1!
b1110011010 )
#2975
0!
#2980
b1110100100 '
1!
b1110100100 )
#2985
0!
#2990
b1110101110 '
1!
b1110101110 )
#2995
0!
#3000
b1110111000 '
1!
b1110111000 )
#3005
0!
#3010
b1111000010 '
1!
b1111000010 )
#3015
0!
#3020
b1111001100 '
1!
b1111001100 )
#3025
0!
#3030
b1111010110 '
1!
b1111010110 )
#3035
0!
#3040
b1111100000 '
1!
b1111100000 )
#3045
0!
#3050
b1111101010 '
1!
b1111101010 )
#3055
0!
#3060
b1111110100 '
1!
b1111110100 )
#3065
0!
#3070
b1111111110 '
1!
b1111111110 )
#3075
0!
#3080
b1000 '
1!
b1000 )
#3085
0!
#3090
b10010 '
1!
b10010 )
#3095
0!
#3100
b11100 '
1!
b11100 )
#3105
0!
#3110
b100110 '
1!
b100110 )
#3115
0!
#3120
b110000 '
1!
b110000 )
#3125
0!
#3130
b111010 '
1!
b111010 )
#3135
0!
#3140
b1000100 '
1!
b1000100 )
#3145
0!
#3150
b1001110 '
1!
b1001110 )
#3155
0!
#3160
b1011000 '
1!
b1011000 )
#3165
0!
#3170
b1100010 '
1!
b1100010 )
#3175
0!
#3180
b1101100 '
1!
b1101100 )
#3185
0!
#3190
b1110110 '
1!
b1110110 )
#3195
0!
#3200
b10000000 '
1!
b10000000 )
#3205
0!
#3210
b10001010 '
1!
b10001010 )
#3215
0!
#3220
b10010100 '
1!
b10010100 )
#3225
0!
#3230
b10011110 '
1!
b10011110 )
#3235
0!
#3240
b10101000 '
1!
b10101000 )
#3245
0!
#3250
b10110010 '
1!
b10110010 )
#3255
0!
#3260
b10111100 '
1!
b10111100 )
#3265
0!
#3270
b11000110 '
1!
b11000110 )
#3275
0!
#3280
b11010000 '
1!
b11010000 )
#3285
0!
#3290
b11011010 '
1!
b11011010 )
#3295
0!
#3300
b11100100 '
1!
b11100100 )
#3305
0!
#3310
b11101110 '
1!
b11101110 )
#3315
0!
#3320
b11111000 '
1!
b11111000 )
#3325
0!
#3330
b100000010 '
1!
b100000010 )
#3335
0!
#3340
b100001100 '
1!
b100001100 )
#3345
0!
#3350
b100010110 '
1!
b100010110 )
#3355
0!
#3360
b100100000 '
1!
b100100000 )
#3365
0!
#3370
b100101010 '
1!
b100101010 )
#3375
0!
#3380
b100110100 '
1!
b100110100 )
#3385
0!
#3390
b100111110 '
1!
b100111110 )
#3395
0!
#3400
b101001000 '
1!
b101001000 )
#3405
0!
#3410
b101010010 '
1!
b101010010 )
#3415
0!
#3420
b101011100 '
1!
b101011100 )
#3425
0!
#3430
b101100110 '
1!
b101100110 )
#3435
0!
#3440
b101110000 '
1!
b101110000 )
#3445
0!
#3450
b101111010 '
1!
b101111010 )
#3455
0!
#3460
b110000100 '
1!
b110000100 )
#3465
0!
#3470
b110001110 '
1!
b110001110 )
#3475
0!
#3480
b110011000 '
1!
b110011000 )
#3485
0!
#3490
b110100010 '
1!
b110100010 )
#3495
0!
#3500
b110101100 '
1!
b110101100 )
#3505
0!
#3510
b110110110 '
1!
b110110110 )
#3515
0!
#3520
b111000000 '
1!
b111000000 )
#3525
0!
#3530
b111001010 '
1!
b111001010 )
#3535
0!
#3540
b111010100 '
1!
b111010100 )
#3545
0!
#3550
b111011110 '
1!
b111011110 )
#3555
0!
#3560
b111101000 '
1!
b111101000 )
#3565
0!
#3570
b111110010 '
1!
b111110010 )
#3575
0!
#3580
b111111100 '
1!
b111111100 )
#3585
0!
#3590
b1000000110 '
1!
b1000000110 )
#3595
0!
#3600
b1000010000 '
1!
b1000010000 )
#3605
0!
#3610
b1000011010 '
1!
b1000011010 )
#3615
0!
#3620
b1000100100 '
1!
b1000100100 )
#3625
0!
#3630
b1000101110 '
1!
b1000101110 )
#3635
0!
#3640
b1000111000 '
1!
b1000111000 )
#3645
0!
#3650
b1001000010 '
1!
b1001000010 )
#3655
0!
#3660
b1001001100 '
1!
b1001001100 )
#3665
0!
#3670
b1001010110 '
1!
b1001010110 )
#3675
0!
#3680
b1001100000 '
1!
b1001100000 )
#3685
0!
#3690
b1001101010 '
1!
b1001101010 )
#3695
0!
#3700
b1001110100 '
1!
b1001110100 )
#3705
0!
#3710
b1001111110 '
1!
b1001111110 )
#3715
0!
#3720
b1010001000 '
1!
b1010001000 )
#3725
0!
#3730
b1010010010 '
1!
b1010010010 )
#3735
0!
#3740
b1010011100 '
1!
b1010011100 )
#3745
0!
#3750
b1010100110 '
1!
b1010100110 )
#3755
0!
#3760
b1010110000 '
1!
b1010110000 )
#3765
0!
#3770
b1010111010 '
1!
b1010111010 )
#3775
0!
#3780
b1011000100 '
1!
b1011000100 )
#3785
0!
#3790
b1011001110 '
1!
b1011001110 )
#3795
0!
#3800
b1011011000 '
1!
b1011011000 )
#3805
0!
#3810
b1011100010 '
1!
b1011100010 )
#3815
0!
#3820
b1011101100 '
1!
b1011101100 )
#3825
0!
#3830
b1011110110 '
1!
b1011110110 )
#3835
0!
#3840
b1100000000 '
1!
b1100000000 )
#3845
0!
#3850
b1100001010 '
1!
b1100001010 )
#3855
0!
#3860
b1100010100 '
1!
b1100010100 )
#3865
0!
#3870
b1100011110 '
1!
b1100011110 )
#3875
0!
#3880
b1100101000 '
1!
b1100101000 )
#3885
0!
#3890
b1100110010 '
1!
b1100110010 )
#3895
0!
#3900
b1100111100 '
1!
b1100111100 )
#3905
0!
#3910
b1101000110 '
1!
b1101000110 )
#3915
0!
#3920
b1101010000 '
1!
b1101010000 )
#3925
0!
#3930
b1101011010 '
1!
b1101011010 )
#3935
0!
#3940
b1101100100 '
1!
b1101100100 )
#3945
0!
#3950
b1101101110 '
1!
b1101101110 )
#3955
0!
#3960
b1101111000 '
1!
b1101111000 )
#3965
0!
#3970
b1110000010 '
1!
b1110000010 )
#3975
0!
#3980
b1110001100 '
1!
b1110001100 )
#3985
0!
#3990
b1110010110 '
1!
b1110010110 )
#3995
0!
#4000
b1110100000 '
1!
b1110100000 )
#4005
0!
#4010
b1110101010 '
1!
b1110101010 )
#4015
0!
#4020
b1110110100 '
1!
b1110110100 )
#4025
0!
#4030
b1110111110 '
1!
b1110111110 )
#4035
0!
#4040
b1111001000 '
1!
b1111001000 )
#4045
0!
#4050
b1111010010 '
1!
b1111010010 )
#4055
0!
#4060
b1111011100 '
1!
b1111011100 )
#4065
0!
#4070
b1111100110 '
1!
b1111100110 )
#4075
0!
#4080
b1111110000 '
1!
b1111110000 )
#4085
0!
#4090
b1111111010 '
1!
b1111111010 )
#4095
0!
#4100
b100 '
1!
b100 )
#4105
0!
#4110
b1110 '
1!
b1110 )
#4115
0!
#4120
b11000 '
1!
b11000 )
#4125
0!
#4130
b100010 '
1!
b100010 )
#4135
0!
#4140
b101100 '
1!
b101100 )
#4145
0!
#4150
b110110 '
1!
b110110 )
#4155
0!
#4160
b1000000 '
1!
b1000000 )
#4165
0!
#4170
b1001010 '
1!
b1001010 )
#4175
0!
#4180
b1010100 '
1!
b1010100 )
#4185
0!
#4190
b1011110 '
1!
b1011110 )
#4195
0!
#4200
b1101000 '
1!
b1101000 )
#4205
0!
#4210
b1110010 '
1!
b1110010 )
#4215
0!
#4220
b1111100 '
1!
b1111100 )
#4225
0!
#4230
b10000110 '
1!
b10000110 )
#4235
0!
#4240
b10010000 '
1!
b10010000 )
#4245
0!
#4250
b10011010 '
1!
b10011010 )
#4255
0!
#4260
b10100100 '
1!
b10100100 )
#4265
0!
#4270
b10101110 '
1!
b10101110 )
#4275
0!
#4280
b10111000 '
1!
b10111000 )
#4285
0!
#4290
b11000010 '
1!
b11000010 )
#4295
0!
#4300
b11001100 '
1!
b11001100 )
#4305
0!
#4310
b11010110 '
1!
b11010110 )
#4315
0!
#4320
b11100000 '
1!
b11100000 )
#4325
0!
#4330
b11101010 '
1!
b11101010 )
#4335
0!
#4340
b11110100 '
1!
b11110100 )
#4345
0!
#4350
b11111110 '
1!
b11111110 )
#4355
0!
#4360
b100001000 '
1!
b100001000 )
#4365
0!
#4370
b100010010 '
1!
b100010010 )
#4375
0!
#4380
b100011100 '
1!
b100011100 )
#4385
0!
#4390
b100100110 '
1!
b100100110 )
#4395
0!
#4400
b100110000 '
1!
b100110000 )
#4405
0!
#4410
b100111010 '
1!
b100111010 )
#4415
0!
#4420
b101000100 '
1!
b101000100 )
#4425
0!
#4430
b101001110 '
1!
b101001110 )
#4435
0!
#4440
b101011000 '
1!
b101011000 )
#4445
0!
#4450
b101100010 '
1!
b101100010 )
#4455
0!
#4460
b101101100 '
1!
b101101100 )
#4465
0!
#4470
b101110110 '
1!
b101110110 )
#4475
0!
#4480
b110000000 '
1!
b110000000 )
#4485
0!
#4490
b110001010 '
1!
b110001010 )
#4495
0!
#4500
b110010100 '
1!
b110010100 )
#4505
0!
#4510
b110011110 '
1!
b110011110 )
#4515
0!
#4520
b110101000 '
1!
b110101000 )
#4525
0!
#4530
b110110010 '
1!
b110110010 )
#4535
0!
#4540
b110111100 '
1!
b110111100 )
#4545
0!
#4550
b111000110 '
1!
b111000110 )
#4555
0!
#4560
b111010000 '
1!
b111010000 )
#4565
0!
#4570
b111011010 '
1!
b111011010 )
#4575
0!
#4580
b111100100 '
1!
b111100100 )
#4585
0!
#4590
b111101110 '
1!
b111101110 )
#4595
0!
#4600
b111111000 '
1!
b111111000 )
#4605
0!
#4610
b1000000010 '
1!
b1000000010 )
#4615
0!
#4620
b1000001100 '
1!
b1000001100 )
#4625
0!
#4630
b1000010110 '
1!
b1000010110 )
#4635
0!
#4640
b1000100000 '
1!
b1000100000 )
#4645
0!
#4650
b1000101010 '
1!
b1000101010 )
#4655
0!
#4660
b1000110100 '
1!
b1000110100 )
#4665
0!
#4670
b1000111110 '
1!
b1000111110 )
#4675
0!
#4680
b1001001000 '
1!
b1001001000 )
#4685
0!
#4690
b1001010010 '
1!
b1001010010 )
#4695
0!
#4700
b1001011100 '
1!
b1001011100 )
#4705
0!
#4710
b1001100110 '
1!
b1001100110 )
#4715
0!
#4720
b1001110000 '
1!
b1001110000 )
#4725
0!
#4730
b1001111010 '
1!
b1001111010 )
#4735
0!
#4740
b1010000100 '
1!
b1010000100 )
#4745
0!
#4750
b1010001110 '
1!
b1010001110 )
#4755
0!
#4760
b1010011000 '
1!
b1010011000 )
#4765
0!
#4770
b1010100010 '
1!
b1010100010 )
#4775
0!
#4780
b1010101100 '
1!
b1010101100 )
#4785
0!
#4790
b1010110110 '
1!
b1010110110 )
#4795
0!
#4800
b1011000000 '
1!
b1011000000 )
#4805
0!
#4810
b1011001010 '
1!
b1011001010 )
#4815
0!
#4820
b1011010100 '
1!
b1011010100 )
#4825
0!
#4830
b1011011110 '
1!
b1011011110 )
#4835
0!
#4840
b1011101000 '
1!
b1011101000 )
#4845
0!
#4850
b1011110010 '
1!
b1011110010 )
#4855
0!
#4860
b1011111100 '
1!
b1011111100 )
#4865
0!
#4870
b1100000110 '
1!
b1100000110 )
#4875
0!
#4880
b1100010000 '
1!
b1100010000 )
#4885
0!
#4890
b1100011010 '
1!
b1100011010 )
#4895
0!
#4900
b1100100100 '
1!
b1100100100 )
#4905
0!
#4910
b1100101110 '
1!
b1100101110 )
#4915
0!
#4920
b1100111000 '
1!
b1100111000 )
#4925
0!
#4930
b1101000010 '
1!
b1101000010 )
#4935
0!
#4940
b1101001100 '
1!
b1101001100 )
#4945
0!
#4950
b1101010110 '
1!
b1101010110 )
#4955
0!
#4960
b1101100000 '
1!
b1101100000 )
#4965
0!
#4970
b1101101010 '
1!
b1101101010 )
#4975
0!
#4980
b1101110100 '
1!
b1101110100 )
#4985
0!
#4990
b1101111110 '
1!
b1101111110 )
#4995
0!
#5000
b1110001000 '
1!
b1110001000 )
#5005
0!
#5010
b1110010010 '
1!
b1110010010 )
#5015
0!
#5020
b1110011100 '
1!
b1110011100 )
#5025
0!
#5030
b1110100110 '
1!
b1110100110 )
#5035
0!
#5040
b1110110000 '
1!
b1110110000 )
#5045
0!
#5050
b1110111010 '
1!
b1110111010 )
#5055
0!
#5060
b1111000100 '
1!
b1111000100 )
#5065
0!
#5070
b1111001110 '
1!
b1111001110 )
#5075
0!
#5080
b1111011000 '
1!
b1111011000 )
#5085
0!
#5090
b1111100010 '
1!
b1111100010 )
#5095
0!
#5100
b1111101100 '
1!
b1111101100 )
#5105
0!
#5110
b1111110110 '
1!
b1111110110 )
#5115
0!
#5120
b0 '
1!
b0 )
#5125
0!
#5130
b1010 '
1!
b1010 )
#5135
0!
#5140
b10100 '
1!
b10100 )
#5145
0!
#5150
b11110 '
1!
b11110 )
#5155
0!
